EESchema Schematic File Version 4
EELAYER 30 0
EELAYER END
$Descr A4 11693 8268
encoding utf-8
Sheet 1 1
Title "RBF_main_board"
Date "2020-11-07"
Rev "0.0.1"
Comp ""
Comment1 ""
Comment2 "https://www.gnu.org/licenses/gpl-3.0.en.html"
Comment3 "GPL v3"
Comment4 "Author : Étienne Carrier"
$EndDescr
$Comp
L power:+BATT #PWR0101
U 1 1 5FA749B8
P 1600 1550
F 0 "#PWR0101" H 1600 1400 50  0001 C CNN
F 1 "+BATT" H 1615 1723 50  0000 C CNN
F 2 "" H 1600 1550 50  0001 C CNN
F 3 "" H 1600 1550 50  0001 C CNN
	1    1600 1550
	-1   0    0    1   
$EndComp
$Comp
L Connector_Generic:Conn_01x02 J1
U 1 1 5FA71AA1
P 1250 1200
F 0 "J1" V 1214 1012 50  0000 R CNN
F 1 "Conn_01x02" V 1123 1012 50  0000 R CNN
F 2 "Connector_JST:JST_PH_S2B-PH-K_1x02_P2.00mm_Horizontal" H 1250 1200 50  0001 C CNN
F 3 "~" H 1250 1200 50  0001 C CNN
	1    1250 1200
	0    -1   -1   0   
$EndComp
$Comp
L power:GNDREF #PWR0102
U 1 1 5FA75354
P 1250 1550
F 0 "#PWR0102" H 1250 1300 50  0001 C CNN
F 1 "GNDREF" H 1255 1377 50  0000 C CNN
F 2 "" H 1250 1550 50  0001 C CNN
F 3 "" H 1250 1550 50  0001 C CNN
	1    1250 1550
	1    0    0    -1  
$EndComp
Wire Wire Line
	1250 1400 1250 1550
Wire Wire Line
	1350 1400 1350 1500
Wire Wire Line
	1350 1500 1600 1500
Wire Wire Line
	1600 1500 1600 1550
$Comp
L Regulator_Linear:TLV70030_SOT23-5 U2
U 1 1 5FA7E732
P 3600 1100
F 0 "U2" H 3600 1442 50  0000 C CNN
F 1 "TLV70030_SOT23-5" H 3600 1351 50  0000 C CNN
F 2 "Package_TO_SOT_SMD:SOT-23-5" H 3600 1425 50  0001 C CIN
F 3 "http://www.ti.com/lit/ds/symlink/tlv700.pdf" H 3600 1150 50  0001 C CNN
	1    3600 1100
	1    0    0    -1  
$EndComp
$Comp
L power:+BATT #PWR0103
U 1 1 5FA88CC0
P 2800 1050
F 0 "#PWR0103" H 2800 900 50  0001 C CNN
F 1 "+BATT" H 2815 1223 50  0000 C CNN
F 2 "" H 2800 1050 50  0001 C CNN
F 3 "" H 2800 1050 50  0001 C CNN
	1    2800 1050
	0    -1   -1   0   
$EndComp
Wire Wire Line
	3200 1050 3200 1000
Wire Wire Line
	3200 1000 3300 1000
Wire Wire Line
	3200 1050 3200 1100
Wire Wire Line
	3200 1100 3300 1100
Connection ~ 3200 1050
Wire Wire Line
	2800 1050 2950 1050
Wire Wire Line
	2950 1050 2950 1250
Connection ~ 2950 1050
Wire Wire Line
	2950 1050 3200 1050
$Comp
L Device:C C3
U 1 1 5FA8F10E
P 2950 1400
F 0 "C3" H 2835 1354 50  0000 R CNN
F 1 "1uf" H 2835 1445 50  0000 R CNN
F 2 "Capacitor_THT:C_Rect_L7.0mm_W2.5mm_P5.00mm" H 2988 1250 50  0001 C CNN
F 3 "~" H 2950 1400 50  0001 C CNN
	1    2950 1400
	-1   0    0    1   
$EndComp
$Comp
L power:GNDREF #PWR0104
U 1 1 5FA9E881
P 2950 1700
F 0 "#PWR0104" H 2950 1450 50  0001 C CNN
F 1 "GNDREF" H 2955 1527 50  0000 C CNN
F 2 "" H 2950 1700 50  0001 C CNN
F 3 "" H 2950 1700 50  0001 C CNN
	1    2950 1700
	1    0    0    -1  
$EndComp
Wire Wire Line
	2950 1550 2950 1700
$Comp
L power:GNDREF #PWR0105
U 1 1 5FAA84FD
P 3600 1700
F 0 "#PWR0105" H 3600 1450 50  0001 C CNN
F 1 "GNDREF" H 3605 1527 50  0000 C CNN
F 2 "" H 3600 1700 50  0001 C CNN
F 3 "" H 3600 1700 50  0001 C CNN
	1    3600 1700
	1    0    0    -1  
$EndComp
Wire Wire Line
	3600 1400 3600 1700
$Comp
L Device:C C4
U 1 1 5FAADF2B
P 4200 1400
F 0 "C4" H 4085 1354 50  0000 R CNN
F 1 "1uf" H 4085 1445 50  0000 R CNN
F 2 "Capacitor_THT:C_Rect_L7.0mm_W2.5mm_P5.00mm" H 4238 1250 50  0001 C CNN
F 3 "~" H 4200 1400 50  0001 C CNN
	1    4200 1400
	-1   0    0    1   
$EndComp
$Comp
L power:GNDREF #PWR0106
U 1 1 5FAAFCAB
P 4200 1700
F 0 "#PWR0106" H 4200 1450 50  0001 C CNN
F 1 "GNDREF" H 4205 1527 50  0000 C CNN
F 2 "" H 4200 1700 50  0001 C CNN
F 3 "" H 4200 1700 50  0001 C CNN
	1    4200 1700
	1    0    0    -1  
$EndComp
Wire Wire Line
	4200 1550 4200 1600
$Comp
L power:+3.3V #PWR0107
U 1 1 5FAB0717
P 4500 1000
F 0 "#PWR0107" H 4500 850 50  0001 C CNN
F 1 "+3.3V" V 4515 1128 50  0000 L CNN
F 2 "" H 4500 1000 50  0001 C CNN
F 3 "" H 4500 1000 50  0001 C CNN
	1    4500 1000
	0    1    1    0   
$EndComp
Wire Wire Line
	3900 1000 4200 1000
Wire Wire Line
	4200 1000 4200 1250
Connection ~ 4200 1000
Wire Wire Line
	4200 1000 4350 1000
Wire Notes Line
	550  550  2300 550 
Wire Notes Line
	2300 550  2300 2300
Wire Notes Line
	2300 2300 550  2300
Wire Notes Line
	550  2300 550  550 
Wire Notes Line
	2450 550  2450 2300
Wire Notes Line
	2450 2300 5150 2300
Wire Notes Line
	5150 2300 5150 550 
Wire Notes Line
	5150 550  2450 550 
Text Notes 2600 2250 0    50   Italic 0
Step down : \nBATT (3.7) to 3.3v for MCU power\n
Text Notes 600  2250 0    50   Italic 0
Battery connector\n
$Comp
L RBF_main_board:R1210N501C-TR-FE U1
U 1 1 5FA7DA3A
P 2050 3100
F 0 "U1" H 2478 3146 50  0000 L CNN
F 1 "R1210N501C-TR-FE" H 2478 3055 50  0000 L CNN
F 2 "RBF_main_board:R1210N501C-TR-FE" H 1650 3400 50  0001 C CNN
F 3 "" H 1650 3400 50  0001 C CNN
	1    2050 3100
	1    0    0    -1  
$EndComp
$Comp
L power:GNDREF #PWR0108
U 1 1 5FA87729
P 2300 2700
F 0 "#PWR0108" H 2300 2450 50  0001 C CNN
F 1 "GNDREF" H 2305 2527 50  0000 C CNN
F 2 "" H 2300 2700 50  0001 C CNN
F 3 "" H 2300 2700 50  0001 C CNN
	1    2300 2700
	-1   0    0    1   
$EndComp
$Comp
L power:+5V #PWR0109
U 1 1 5FA8BED7
P 3100 3700
F 0 "#PWR0109" H 3100 3550 50  0001 C CNN
F 1 "+5V" H 3115 3873 50  0000 C CNN
F 2 "" H 3100 3700 50  0001 C CNN
F 3 "" H 3100 3700 50  0001 C CNN
	1    3100 3700
	-1   0    0    1   
$EndComp
$Comp
L pspice:INDUCTOR L1
U 1 1 5FA91456
P 1050 2750
F 0 "L1" V 1096 2706 50  0000 R CNN
F 1 "100µH" V 1005 2706 50  0000 R CNN
F 2 "RBF_main_board:CD54NP-101KC" H 1050 2750 50  0001 C CNN
F 3 "~" H 1050 2750 50  0001 C CNN
	1    1050 2750
	1    0    0    -1  
$EndComp
Wire Wire Line
	1300 2750 1500 2750
$Comp
L Device:D_Schottky D1
U 1 1 5FA9D81A
P 1650 3700
F 0 "D1" H 1650 3917 50  0000 C CNN
F 1 " 40V 1A" H 1650 3826 50  0000 C CNN
F 2 "Diode_SMD:D_SOD-323" H 1650 3700 50  0001 C CNN
F 3 "~" H 1650 3700 50  0001 C CNN
	1    1650 3700
	-1   0    0    1   
$EndComp
Wire Wire Line
	1500 3700 1500 2750
Connection ~ 1500 2750
Wire Wire Line
	1500 2750 1800 2750
$Comp
L Device:CP C1
U 1 1 5FAAF9E2
P 2300 3850
F 0 "C1" H 2418 3896 50  0000 L CNN
F 1 "22µF" H 2418 3805 50  0000 L CNN
F 2 "Capacitor_Tantalum_SMD:CP_EIA-3528-21_Kemet-B_Pad1.50x2.35mm_HandSolder" H 2338 3700 50  0001 C CNN
F 3 "~" H 2300 3850 50  0001 C CNN
	1    2300 3850
	1    0    0    -1  
$EndComp
$Comp
L Device:CP C2
U 1 1 5FAB678D
P 2700 3850
F 0 "C2" H 2818 3896 50  0000 L CNN
F 1 "22µF" H 2818 3805 50  0000 L CNN
F 2 "Capacitor_Tantalum_SMD:CP_EIA-3528-21_Kemet-B_Pad1.50x2.35mm_HandSolder" H 2738 3700 50  0001 C CNN
F 3 "~" H 2700 3850 50  0001 C CNN
	1    2700 3850
	1    0    0    -1  
$EndComp
Connection ~ 2300 3700
Wire Wire Line
	2300 3700 2700 3700
Connection ~ 2700 3700
Wire Wire Line
	2700 3700 3050 3700
Wire Wire Line
	1800 3700 2050 3700
Wire Wire Line
	2050 3450 2050 3600
Connection ~ 2050 3700
Wire Wire Line
	2050 3700 2300 3700
Wire Wire Line
	1800 3450 1800 3600
Wire Wire Line
	1800 3600 2050 3600
Connection ~ 2050 3600
Wire Wire Line
	2050 3600 2050 3700
$Comp
L power:+BATT #PWR0110
U 1 1 5FA9B420
P 700 2750
F 0 "#PWR0110" H 700 2600 50  0001 C CNN
F 1 "+BATT" H 715 2923 50  0000 C CNN
F 2 "" H 700 2750 50  0001 C CNN
F 3 "" H 700 2750 50  0001 C CNN
	1    700  2750
	1    0    0    -1  
$EndComp
Wire Wire Line
	800  2750 700  2750
$Comp
L power:GNDREF #PWR0111
U 1 1 5FAC7DE6
P 2700 4000
F 0 "#PWR0111" H 2700 3750 50  0001 C CNN
F 1 "GNDREF" H 2705 3827 50  0000 C CNN
F 2 "" H 2700 4000 50  0001 C CNN
F 3 "" H 2700 4000 50  0001 C CNN
	1    2700 4000
	1    0    0    -1  
$EndComp
$Comp
L power:GNDREF #PWR0112
U 1 1 5FAC6C9E
P 2300 4000
F 0 "#PWR0112" H 2300 3750 50  0001 C CNN
F 1 "GNDREF" H 2305 3827 50  0000 C CNN
F 2 "" H 2300 4000 50  0001 C CNN
F 3 "" H 2300 4000 50  0001 C CNN
	1    2300 4000
	1    0    0    -1  
$EndComp
Text Notes 600  4200 0    50   Italic 0
Step up : \nBATT (3.7) to 5v for LED power
$Comp
L Mechanical:MountingHole_Pad H1
U 1 1 5FABC4D5
P 3050 3600
F 0 "H1" H 3150 3649 50  0000 L CNN
F 1 "MountingHole_Pad" H 3150 3558 50  0000 L CNN
F 2 "MountingHole:MountingHole_2.5mm_Pad" H 3050 3600 50  0001 C CNN
F 3 "~" H 3050 3600 50  0001 C CNN
	1    3050 3600
	1    0    0    -1  
$EndComp
Connection ~ 3050 3700
Wire Wire Line
	3050 3700 3100 3700
$Comp
L Mechanical:MountingHole_Pad H2
U 1 1 5FAC0A08
P 4350 900
F 0 "H2" H 4450 949 50  0000 L CNN
F 1 "MountingHole_Pad" H 4450 858 50  0000 L CNN
F 2 "MountingHole:MountingHole_2.5mm_Pad" H 4350 900 50  0001 C CNN
F 3 "~" H 4350 900 50  0001 C CNN
	1    4350 900 
	1    0    0    -1  
$EndComp
Connection ~ 4350 1000
Wire Wire Line
	4350 1000 4500 1000
Wire Wire Line
	2300 2700 2300 2750
Connection ~ 2300 2750
$Comp
L Mechanical:MountingHole_Pad H3
U 1 1 5FB398F9
P 3050 2650
F 0 "H3" H 3150 2699 50  0000 L CNN
F 1 "MountingHole_Pad" H 3150 2608 50  0000 L CNN
F 2 "MountingHole:MountingHole_2.5mm_Pad" H 3050 2650 50  0001 C CNN
F 3 "~" H 3050 2650 50  0001 C CNN
	1    3050 2650
	1    0    0    -1  
$EndComp
Wire Wire Line
	2300 2750 3050 2750
Wire Notes Line
	4100 4250 4100 2400
Wire Notes Line
	4100 2400 550  2400
Wire Notes Line
	550  2400 550  4250
Wire Notes Line
	550  4250 4100 4250
$Comp
L Mechanical:MountingHole_Pad H4
U 1 1 5FB46706
P 4650 1500
F 0 "H4" H 4750 1549 50  0000 L CNN
F 1 "MountingHole_Pad" H 4750 1458 50  0000 L CNN
F 2 "MountingHole:MountingHole_2.5mm_Pad" H 4650 1500 50  0001 C CNN
F 3 "~" H 4650 1500 50  0001 C CNN
	1    4650 1500
	1    0    0    -1  
$EndComp
Wire Notes Line
	5950 1350 2400 1350
Wire Wire Line
	4650 1600 4200 1600
Connection ~ 4200 1600
Wire Wire Line
	4200 1600 4200 1700
$EndSCHEMATC
